[gd_scene load_steps=8 format=2]

[ext_resource path="res://Ball/Ball.gd" type="Script" id=1]
[ext_resource path="res://Ball/ball.png" type="Texture" id=2]
[ext_resource path="res://Ball/hit.wav" type="AudioStream" id=3]
[ext_resource path="res://Ball/destroy.wav" type="AudioStream" id=4]

[sub_resource type="PhysicsMaterial" id=1]
friction = 0.0
bounce = 1.0

[sub_resource type="CircleShape2D" id=2]
radius = 4.89551

[sub_resource type="Gradient" id=3]
offsets = PoolRealArray( 0.147239, 0.674847, 1 )
colors = PoolColorArray( 0, 0, 0, 0, 0.235294, 0.67451, 0.843137, 0.690196, 0.235294, 0.67451, 0.843137, 1 )

[node name="Ball" type="RigidBody2D"]
mode = 2
physics_material_override = SubResource( 1 )
contacts_reported = 1
contact_monitor = true
sleeping = true
script = ExtResource( 1 )
__meta__ = {
"_edit_group_": true
}

[node name="Sprite" type="Sprite" parent="."]
texture = ExtResource( 2 )

[node name="CollisionShape2D" type="CollisionShape2D" parent="."]
shape = SubResource( 2 )

[node name="VisibilityNotifier" type="VisibilityNotifier2D" parent="."]
rect = Rect2( -4, -4, 8, 8 )

[node name="Trail" type="Node" parent="."]

[node name="TrailLine" type="Line2D" parent="Trail"]
width = 4.0
default_color = Color( 0.235294, 0.67451, 0.843137, 1 )
gradient = SubResource( 3 )

[node name="HitSound" type="AudioStreamPlayer" parent="."]
stream = ExtResource( 3 )
bus = "Sounds"

[node name="DestroySound" type="AudioStreamPlayer" parent="."]
stream = ExtResource( 4 )
bus = "Sounds"

